<svg width="44" height="37" viewBox="0 0 44 37" fill="none" xmlns="http://www.w3.org/2000/svg">
<path d="M43.443 4.25031C41.8069 4.98763 40.0728 5.47123 38.2979 5.68524C40.1683 4.56483 41.565 2.77058 42.2159 0.651974C40.4685 1.7041 38.5623 2.45018 36.5757 2.85954C35.2294 1.40288 33.454 0.439813 31.5222 0.118324C29.5904 -0.203164 27.6091 0.134716 25.8828 1.08005C24.1564 2.02537 22.7805 3.52585 21.9665 5.35091C21.1525 7.17596 20.9454 9.22462 21.3771 11.1821C17.8334 10.9999 14.3668 10.0545 11.203 8.40763C8.03915 6.76072 5.24892 4.44913 3.01389 1.62331C2.22968 3.02845 1.81431 4.61815 1.80833 6.23713C1.80726 7.73962 2.16831 9.2191 2.85938 10.544C3.55044 11.8689 4.5501 12.9981 5.76944 13.8312C4.35782 13.8 2.97534 13.4134 1.74375 12.7053V12.8157C1.74174 14.923 2.44996 16.9663 3.7485 18.5997C5.04705 20.233 6.85612 21.3559 8.86944 21.7784C8.08098 21.9773 7.26998 22.0665 6.45833 22.0433C5.92128 22.0943 5.38079 22.0943 4.84374 22.0433C5.42155 23.856 6.53282 25.4405 8.02472 26.579C9.51663 27.7175 11.3159 28.3541 13.175 28.4011C10.0114 30.8791 6.13361 32.2072 2.15278 32.1761C1.43365 32.1849 0.714686 32.148 0 32.0657C4.07575 34.7539 8.82418 36.1725 13.6701 36.1497C17.004 36.1732 20.3091 35.5171 23.3936 34.2197C26.4781 32.9222 29.2805 31.0092 31.638 28.5918C33.9954 26.1743 35.8609 23.3006 37.1262 20.1376C38.3914 16.9746 39.0312 13.5853 39.0083 10.1666C39.0083 9.76924 39.0083 9.37188 39.0083 8.99659C40.7522 7.7001 42.2544 6.09239 43.443 4.25031Z" fill="white"/>
</svg>
